<svg width="8" height="15" viewBox="0 0 8 15" fill="none" xmlns="http://www.w3.org/2000/svg">
<line x1="4" y1="4.37114e-08" x2="4" y2="10" stroke="#7ABD52" stroke-width="2"/>
<path d="M4 15L0.535899 9L7.4641 9L4 15Z" fill="#7ABD52"/>
</svg>
