<svg width="228" height="220" viewBox="0 0 228 220" fill="none" xmlns="http://www.w3.org/2000/svg">
<g opacity="0.2">
<g clip-path="url(#clip0)">
<path d="M152.806 217.411L154.359 218.393L155.523 216.929C176.896 186.481 188.576 157.859 188.441 136.35C188.335 91.605 130.799 31.7613 77.4086 3.73158L75.949 3.0208L74.8733 4.30276C49.8659 34.3352 36.469 63.7012 38.0541 85.0137C41.018 125.281 102.138 189.353 152.806 217.411ZM76.9089 8.00264C128.844 35.7754 184.27 93.4629 184.357 136.392C184.389 156.723 173.42 183.885 153.123 213.051C103.634 184.89 44.9004 123.334 41.8619 84.6107C40.5623 64.5659 53.1596 36.842 76.9089 8.00264Z" fill="#7ABD52"/>
<path d="M107.583 94.2676L47.2632 80.4695C46.4446 80.2965 45.5418 80.7598 45.28 81.761C45.1071 82.5796 45.5704 83.4824 46.5715 83.7442L108.983 97.8834L119.803 125.725L55.7548 111.239C54.9361 111.067 54.0333 111.53 53.7716 112.531C53.5986 113.35 54.0619 114.252 55.0631 114.514L121.114 129.523L130.259 153.388L79.0379 141.763C78.2193 141.591 77.3165 142.054 77.0547 143.055C76.8818 143.874 77.3451 144.776 78.3462 145.038L131.841 157.093L139.769 177.431L103.467 169.008C102.648 168.835 101.745 169.298 101.483 170.3C101.31 171.118 101.774 172.021 102.775 172.283L140.986 180.958L151.9 209.07C152.181 209.884 153.093 210.329 153.907 210.048C154.81 209.584 155.254 208.672 154.791 207.769L150.218 195.837L176.52 159.437C177.058 158.796 176.866 157.8 176.225 157.262L176.043 157.173C175.313 156.818 174.499 157.099 173.961 157.74L148.913 192.492L138.93 166.639L176.054 114.969C176.592 114.328 176.4 113.331 175.759 112.794L175.576 112.705C174.846 112.349 174.032 112.63 173.495 113.271L137.442 163.206L127.459 137.353L163.245 87.9654C163.783 87.3244 163.591 86.328 162.95 85.7902L162.768 85.7014C162.038 85.346 161.224 85.6268 160.686 86.2678L126.424 133.914L116.16 107.247L145.414 66.6419C145.951 66.0009 145.759 65.0046 145.118 64.4667L144.936 64.3779C144.206 64.0225 143.392 64.3033 142.854 64.9443L114.855 103.903L104.31 76.4218L125.421 46.9748C125.959 46.3338 125.767 45.3375 125.126 44.7996L124.943 44.7108C124.214 44.3554 123.4 44.6362 122.862 45.2772L102.822 72.9885L93.0262 47.6779L104.292 31.4947C104.83 30.8537 104.638 29.8574 103.997 29.3195L103.815 29.2307C103.085 28.8753 102.271 29.1561 101.733 29.7971L91.4444 43.9732L80.4366 15.5894C80.1605 15.2293 80.0669 14.958 79.702 14.7803C79.3371 14.6026 78.8833 14.6074 78.3407 14.7946C77.5268 15.0754 77.0826 15.9877 77.3634 16.8016L85.3852 37.4112L62.1863 32.2089C61.3676 32.036 60.4649 32.4993 60.2031 33.5004C60.0301 34.3191 60.4934 35.2218 61.4946 35.4836L86.9623 40.6621L96.4819 65.6125L52.54 55.7268C51.7214 55.5539 50.8186 56.0172 50.5568 57.0183C50.3839 57.837 50.8472 58.7397 51.8483 59.0015L97.9749 69.4996L107.583 94.2676Z" fill="#7ABD52"/>
</g>
</g>
<defs>
<clipPath id="clip0">
<rect x="157.643" y="219.992" width="175.339" height="159.307" transform="rotate(-154.036 157.643 219.992)" fill="white"/>
</clipPath>
</defs>
</svg>
