<svg width="248" height="56" viewBox="0 0 248 56" fill="none" xmlns="http://www.w3.org/2000/svg">
<g clip-path="url(#clip0)">
<path d="M67 21.7297L67.266 14.7297V14.4865C67.266 13.2162 67.532 12.5946 68.0906 12.5946C68.596 12.5946 69.2609 13.7838 70.1121 16.1351C71.6549 20.4054 73.4902 27.4865 75.6448 37.3514L75.6714 37.5405L75.831 24.2432V12.9459C75.964 12.3243 76.363 12 77.028 12C77.693 12 78.0387 12.4865 78.0387 13.4865V13.7027C77.8791 14 77.8259 14.3784 77.8259 14.8108L77.5866 28.8919V40.5405C77.5866 40.9189 77.4802 41.2973 77.2674 41.6757C77.0546 42.0541 76.8152 42.2432 76.496 42.2432C75.964 42.2432 74.9532 39.6216 73.4105 34.4054C71.8943 29.1622 70.3781 23.5405 68.8886 17.5405V30.0541C68.8886 31.2703 68.9684 33.0811 69.1546 35.4865C69.3407 37.8919 69.4205 39.7027 69.4205 40.9189C69.4205 41.1622 69.2875 41.3514 68.995 41.5135C68.7024 41.6757 68.3566 41.7568 67.931 41.7568C67.5054 41.7568 67.2926 41.5676 67.2926 41.1622L67.4788 38.4324C67.4788 37.1081 67.399 34.973 67.2394 32.027C67.0798 29.0541 67 27.2432 67 26.5946V21.7297Z" fill="black"/>
<path d="M80.8582 22.4594L80.6454 19.2432C80.6454 17.4324 81.1774 16.5405 82.2147 16.5405C82.8797 16.5405 83.8107 16.7027 84.9545 17.027C86.1248 17.3513 86.6834 17.7567 86.6834 18.2432C86.6834 18.7567 86.311 19.1621 85.5928 19.4324C84.4225 19.027 83.4915 18.7838 82.7467 18.7027C82.7733 19.2432 82.7999 19.7838 82.7999 20.3513L82.6403 25.8378C82.6403 25.8649 82.6669 26.054 82.7467 26.4324L84.0767 26.3784C85.2737 26.3784 85.8854 26.7297 85.8854 27.4324C85.8854 27.7027 85.779 27.9459 85.5663 28.1621C85.3535 28.3784 85.0609 28.4594 84.7417 28.4594C84.3959 28.4594 84.0501 28.4324 83.6511 28.3784H82.6935C82.7733 29.3513 82.7999 30.2973 82.7999 31.2703L82.6403 38.1892C82.6403 39.6216 82.6669 40.3243 82.7201 40.3243L85.4865 40.2432C86.444 40.2432 86.9228 40.5405 86.9228 41.1621C86.9228 41.5405 86.7632 41.8378 86.4174 42C86.0982 42.1621 85.7258 42.2703 85.3003 42.2703H82.1615C81.8423 42.2703 81.5231 42.1621 81.2571 41.9189C80.9912 41.7027 80.8582 41.4054 80.8316 41.0811V40.0811L80.5922 33.6486L80.8582 22.4594Z" fill="black"/>
<path d="M99.2385 17C99.2385 16.3784 99.5843 16.0811 100.302 16.0811C100.994 16.0811 101.366 16.3784 101.366 16.9729C101.366 17.7838 101.34 18.2973 101.287 18.5405V18.7567C100.941 19.8108 100.781 20.9729 100.781 22.2702V25.054C100.781 26.6486 100.595 29.027 100.196 32.2432C99.8236 35.4324 99.6109 37.7567 99.6109 39.1621C99.6109 41.7567 99.1321 43.027 98.1745 43.027C97.4563 43.027 97.0839 42.4865 97.0839 41.4054C97.0839 40.3243 97.0573 39.2162 96.9775 38.1081C96.8977 37 96.7913 35.7838 96.6317 34.4594C96.4721 33.1351 96.3125 32.027 96.2061 31.1621C96.0731 30.2973 95.9135 29.054 95.6475 27.4594C95.4081 25.8648 95.2486 24.7567 95.1422 24.1892C95.0624 25.027 95.0092 25.8919 95.0092 26.7297C95.0092 27.5946 94.9028 29.2162 94.7166 31.5675C94.5304 33.9459 94.1846 36.3513 93.7324 38.8108C93.2536 41.2702 92.7216 42.4865 92.1364 42.4865C91.1788 42.4865 90.4341 39.8108 89.9553 34.4865C89.7425 32.2162 89.5297 29.9189 89.3701 27.5946C88.9179 21.6756 88.5455 18.3513 88.2263 17.5946C88.4391 17.1351 88.7849 16.9189 89.3169 16.9189C90.1149 16.9189 90.5139 17.8378 90.5139 19.6756C90.5139 21.5135 90.7799 24.3243 91.3118 28.1081C91.8438 31.8919 92.1364 34.6486 92.1896 36.3784C93.2536 29.027 93.7856 23.4054 93.7856 19.5675L94.7964 19.1081C95.089 19.1081 95.355 19.1892 95.5943 19.3513C95.8071 19.5135 95.9135 19.7297 95.9135 20.027V20.3513C96.6317 22.7838 97.1903 26.3513 97.5893 30.9729C97.7755 33.1081 97.9617 34.7297 98.1479 35.9189C98.6001 32.4054 98.8395 28.1892 98.8395 23.3243C98.8395 22.6757 98.9459 21.7297 99.1321 20.4594C99.3183 19.1892 99.4247 18.2432 99.4247 17.5946C99.2651 17.4324 99.2385 17.2162 99.2385 17Z" fill="black"/>
<path d="M116.209 34.8108L114.746 34.9729C113.895 34.9729 113.469 34.6216 113.469 33.8919C113.469 33.2702 114.267 32.8648 115.89 32.6756C116.209 32.6486 116.555 32.6216 116.927 32.6216C117.299 32.6216 117.619 32.8108 117.911 33.2162C118.177 33.6216 118.31 34.1351 118.31 34.8108C118.31 35.4865 118.443 36.5675 118.683 38.054C118.922 39.5675 119.055 40.5675 119.055 41.0811C119.055 42 118.736 42.4865 118.124 42.4865C117.512 42.4865 117.087 42.2162 116.9 41.6756V41.6486C116.741 41.7027 116.475 41.8648 116.076 42.0811C115.331 42.5135 114.56 42.7027 113.815 42.7027C113.283 42.7027 112.751 42.5946 112.192 42.3783C111.049 41.9189 110.171 41.1351 109.559 40.054C108.894 38.8919 108.468 37.7838 108.256 36.7297C108.043 35.6756 107.91 34.8378 107.83 34.2432C107.75 33.6216 107.67 32.9189 107.617 32.1081C107.564 31.1081 107.537 29.8919 107.537 28.4865L107.511 25.6756C107.511 23.2162 107.591 21.4594 107.75 20.3784C107.91 19.3243 108.069 18.4324 108.229 17.7567C108.389 17.0811 108.575 16.4594 108.814 15.9459C109.027 15.4054 109.293 14.9189 109.612 14.4054C109.931 13.8919 110.304 13.4865 110.703 13.1621C111.607 12.4324 112.618 12.0811 113.762 12.0811C114.905 12.0811 115.491 12.4594 115.491 13.1621C115.491 13.4324 115.384 13.6486 115.198 13.8108C115.012 13.9729 114.773 14.054 114.507 14.054L113.443 13.8919C112.512 13.8919 111.767 14.4865 111.235 15.6216C110.65 16.8648 110.304 18.054 110.144 19.1892C109.985 20.3243 109.878 21.2432 109.798 21.9189C109.692 22.5946 109.639 23.3784 109.612 24.2432C109.559 25.4594 109.532 26.6486 109.559 27.8648L109.532 30.2162C109.532 32.6486 109.639 34.3783 109.852 35.4054C110.064 36.4324 110.277 37.2432 110.517 37.8648C110.729 38.4865 110.995 39 111.315 39.3784C112.352 40.1892 113.256 40.6486 114.054 40.7297C115.171 40.7297 116.076 40.1892 116.821 39.1351C116.767 36.8919 116.555 35.4594 116.209 34.8108Z" fill="black"/>
<path d="M129.402 33.9728L129.801 36.3242C129.801 36.6215 129.908 37.4053 130.147 38.5945C130.386 39.8107 130.493 40.5945 130.493 40.9458V40.9728C130.493 41.5404 130.28 41.8918 129.881 42.0539C129.349 42.0539 128.95 41.9728 128.657 41.7837C128.365 41.6215 128.205 41.2701 128.205 40.7837C128.205 39.7026 128.019 38.135 127.647 36.081L123.949 35.5134C123.71 36.3512 123.55 37.2701 123.417 38.2972C123.284 39.2972 123.178 40.0269 123.072 40.4864C122.859 41.4323 122.433 41.8918 121.848 41.8918C121.555 41.8918 121.289 41.7837 121.023 41.5945C120.784 41.4053 120.651 41.162 120.651 40.8647L120.731 40.5404C122.407 33.9188 123.657 27.4864 124.481 21.2161C124.508 21.0539 124.535 20.5404 124.588 19.7026C124.721 17.8377 124.934 16.6485 125.279 16.135H126.556C126.902 16.135 127.194 16.2161 127.46 16.3783C127.726 16.5404 127.833 16.7837 127.833 17.108C127.833 19.0539 128.099 21.9188 128.604 25.7296C129.136 29.5404 129.402 32.2972 129.402 33.9728ZM127.434 34.7296C127.354 34.3512 127.327 33.7026 127.327 32.7837C127.327 31.8647 127.274 30.7026 127.168 29.3512C127.061 27.9728 126.902 26.3783 126.716 24.5674C126.529 22.7566 126.396 21.4323 126.317 20.6215C125.173 27.0269 124.455 31.5134 124.109 34.135C124.535 34.4053 125.652 34.5945 127.434 34.7296Z" fill="black"/>
<path d="M134.323 28.946L134.27 33.0811C134.27 36.4325 134.509 39.0811 134.988 41.0271L134.563 42.0541H133.525L133.02 41.4866C133.046 40.3514 133.046 39.0541 133.046 37.6487C133.046 36.2163 132.94 33.1893 132.727 28.5406C132.514 23.892 132.408 20.4055 132.408 18.1082C132.408 16.892 132.834 16.2974 133.658 16.2974C134.962 16.2974 136.052 16.6487 136.956 17.3514C137.861 18.0541 138.286 19.0271 138.286 20.3244V23.0001C138.286 23.7298 138.153 24.4055 137.887 25.0001C137.621 25.5947 137.302 26.2433 136.956 26.892C136.611 27.5676 136.398 27.919 136.371 28.0001C136.504 28.6217 136.744 29.8379 137.089 31.6487C137.834 35.5947 138.632 38.4595 139.537 40.1893C139.803 40.6757 139.909 41.0811 139.909 41.3514C139.909 41.6217 139.829 41.8649 139.67 42.0541C139.51 42.2433 139.324 42.3514 139.058 42.3514C138.526 42.3514 138.02 41.7298 137.542 40.5136C137.063 39.2974 136.664 37.946 136.371 36.4325C135.467 31.8649 134.935 29.3784 134.749 28.919H134.323V28.946ZM134.456 17.7028L134.323 18.2433C134.323 19.2974 134.35 20.7838 134.403 22.7568C134.456 24.7298 134.483 26.1622 134.483 27.0541C135.068 26.7568 135.547 25.946 135.892 24.6217C136.265 23.3244 136.424 22.2974 136.424 21.6217C136.424 20.919 136.398 20.4055 136.371 20.0811C136.345 19.7568 136.265 19.3784 136.132 19.0001C135.919 18.1893 135.334 17.7568 134.456 17.7028Z" fill="black"/>
<path d="M141.851 36.9459L141.957 24.9459C141.957 24.135 141.877 22.8648 141.744 21.1891C141.585 19.5134 141.531 18.4323 141.531 17.9729C141.531 17.5134 141.664 17.1621 141.957 16.8918C142.25 16.6486 142.542 16.5134 142.861 16.5134C145.442 16.5134 147.543 18.054 149.139 21.108C150.07 22.8648 150.522 24.7026 150.522 26.6486L150.442 28.5675V30.6756C150.442 33.2432 150.336 34.9459 150.097 35.7837C149.884 36.6486 149.644 37.3513 149.378 37.9188C149.139 38.4864 148.846 38.9999 148.501 39.4323C147.703 40.4594 146.692 41.2702 145.495 41.8918H142.808C142.17 41.9459 141.851 40.2702 141.851 36.9459ZM144.457 39.081V39.9999C146.639 39.9999 147.942 37.7567 148.368 33.2972C148.474 32.2702 148.527 31.2702 148.527 30.3242C148.527 22.6486 147.064 18.6486 144.165 18.2972C143.979 19.2972 143.899 20.6756 143.899 22.4323C143.899 24.1891 144.005 26.9459 144.191 30.6756C144.378 34.4053 144.457 37.2161 144.457 39.081Z" fill="black"/>
<path d="M153.262 22.4594L153.049 19.2432C153.049 17.4324 153.581 16.5405 154.618 16.5405C155.283 16.5405 156.214 16.7027 157.358 17.027C158.529 17.3513 159.087 17.7567 159.087 18.2432C159.087 18.7567 158.715 19.1621 157.997 19.4324C156.826 19.027 155.895 18.7838 155.15 18.7027C155.177 19.2432 155.204 19.7838 155.204 20.3513L155.044 25.8378C155.044 25.8649 155.071 26.054 155.15 26.4324L156.48 26.3784C157.677 26.3784 158.289 26.7297 158.289 27.4324C158.289 27.7027 158.183 27.9459 157.97 28.1621C157.757 28.3784 157.465 28.4594 157.145 28.4594C156.8 28.4594 156.454 28.4324 156.055 28.3784H155.097C155.177 29.3513 155.204 30.2973 155.204 31.2703L155.044 38.1892C155.044 39.6216 155.071 40.3243 155.124 40.3243L157.89 40.2432C158.848 40.2432 159.326 40.5405 159.326 41.1621C159.326 41.5405 159.167 41.8378 158.821 42C158.502 42.1621 158.13 42.2703 157.704 42.2703H154.539C154.219 42.2703 153.9 42.1621 153.634 41.9189C153.368 41.7027 153.235 41.4054 153.209 41.0811V40.0811L152.969 33.6486L153.262 22.4594Z" fill="black"/>
<path d="M161.188 26.2702L161.401 19.1621C161.401 17.9729 161.853 17.054 162.784 16.3513V16.5946C162.891 16.5405 162.971 16.5135 163.05 16.5135C163.635 16.5135 164.38 17.5405 165.258 19.5946C166.136 21.6486 166.934 23.8919 167.652 26.3513C168.37 28.8108 169.062 31.2973 169.78 33.7838C170.472 36.2973 170.924 37.7567 171.083 38.1892C171.589 32.8648 171.828 26.4054 171.828 18.8378L171.775 17.8108C171.775 17.054 172.094 16.6756 172.706 16.6756C173.052 16.6756 173.318 16.8378 173.504 17.1351C173.69 17.4324 173.77 17.7838 173.77 18.1892V21.081C173.743 24.081 173.61 28.054 173.371 33.054C173.131 38.054 172.812 40.8648 172.413 41.5135C171.722 41.7297 171.243 41.8378 171.004 41.8378C170.738 41.8378 170.551 41.7567 170.392 41.5675C170.259 41.3783 170.126 41.1081 170.046 40.7297C169.966 40.3513 169.886 40.1081 169.833 39.9729L169.86 39.8108C169.86 38.8648 168.955 35.8648 167.173 30.8108C165.364 25.7567 164.088 22.2973 163.263 20.3783V39.5675C163.29 39.6216 163.343 39.7027 163.423 39.8378C163.582 40.1081 163.662 40.3783 163.662 40.5946C163.662 40.8378 163.556 41.054 163.316 41.2973C163.077 41.5405 162.838 41.6486 162.518 41.6486C161.694 41.6486 161.295 40.8648 161.295 39.3243L161.188 26.2702Z" fill="black"/>
<path d="M189.065 34.8108L187.602 34.9729C186.75 34.9729 186.325 34.6216 186.325 33.8919C186.325 33.2702 187.123 32.8648 188.745 32.6756C189.065 32.6486 189.41 32.6216 189.783 32.6216C190.155 32.6216 190.474 32.8108 190.767 33.2162C191.033 33.6216 191.166 34.1351 191.166 34.8108C191.166 35.4865 191.299 36.5675 191.538 38.054C191.778 39.5675 191.911 40.5675 191.911 41.0811C191.911 42 191.592 42.4865 190.98 42.4865C190.368 42.4865 189.942 42.2162 189.756 41.6756V41.6486C189.597 41.7027 189.331 41.8648 188.932 42.0811C188.187 42.5135 187.415 42.7027 186.671 42.7027C186.139 42.7027 185.607 42.5946 185.048 42.3783C183.904 41.9189 183.027 41.1351 182.415 40.054C181.75 38.8919 181.324 37.7838 181.111 36.7297C180.899 35.6756 180.766 34.8378 180.686 34.2432C180.606 33.6216 180.526 32.9189 180.473 32.1081C180.42 31.1081 180.393 29.8919 180.393 28.4865L180.367 25.6756C180.367 23.2162 180.446 21.4594 180.606 20.3784C180.766 19.3243 180.925 18.4324 181.085 17.7567C181.244 17.0811 181.431 16.4594 181.67 15.9459C181.883 15.4054 182.149 14.9189 182.468 14.4054C182.787 13.8919 183.16 13.4865 183.559 13.1621C184.463 12.4324 185.474 12.0811 186.617 12.0811C187.761 12.0811 188.346 12.4594 188.346 13.1621C188.346 13.4324 188.24 13.6486 188.054 13.8108C187.868 13.9729 187.628 14.054 187.362 14.054L186.298 13.8919C185.367 13.8919 184.622 14.4865 184.091 15.6216C183.505 16.8648 183.16 18.054 183 19.1892C182.84 20.3243 182.734 21.2432 182.654 21.9189C182.548 22.5946 182.495 23.3784 182.468 24.2432C182.415 25.4594 182.388 26.6486 182.415 27.8648L182.388 30.2162C182.388 32.6486 182.495 34.3783 182.707 35.4054C182.92 36.4324 183.133 37.2432 183.372 37.8648C183.585 38.4865 183.851 39 184.17 39.3784C185.208 40.1892 186.112 40.6486 186.91 40.7297C188.027 40.7297 188.932 40.1892 189.676 39.1351C189.623 36.8919 189.437 35.4594 189.065 34.8108Z" fill="black"/>
<path d="M195.821 28.946L195.768 33.0811C195.768 36.4325 196.007 39.0811 196.486 41.0271L196.06 42.0541H195.023L194.517 41.4866C194.544 40.3514 194.544 39.0541 194.544 37.6487C194.544 36.2163 194.438 33.1893 194.225 28.5406C194.012 23.892 193.906 20.4055 193.906 18.1082C193.906 16.892 194.331 16.2974 195.156 16.2974C196.459 16.2974 197.55 16.6487 198.454 17.3514C199.358 18.0541 199.784 19.0271 199.784 20.3244V23.0001C199.784 23.7298 199.651 24.4055 199.385 25.0001C199.119 25.5947 198.8 26.2433 198.454 26.892C198.108 27.5676 197.896 27.919 197.869 28.0001C198.002 28.6217 198.241 29.8379 198.587 31.6487C199.332 35.5947 200.13 38.4595 201.034 40.1893C201.3 40.6757 201.407 41.0811 201.407 41.3514C201.407 41.6217 201.327 41.8649 201.167 42.0541C201.008 42.2433 200.821 42.3514 200.555 42.3514C200.023 42.3514 199.518 41.7298 199.039 40.5136C198.561 39.2974 198.162 37.946 197.869 36.4325C196.965 31.8649 196.433 29.3784 196.246 28.919H195.821V28.946ZM195.954 17.7028L195.821 18.2433C195.821 19.2974 195.847 20.7838 195.901 22.7568C195.954 24.7298 195.98 26.1622 195.98 27.0541C196.566 26.7568 197.044 25.946 197.39 24.6217C197.763 23.3244 197.922 22.2974 197.922 21.6217C197.922 20.919 197.896 20.4055 197.869 20.0811C197.842 19.7568 197.763 19.3784 197.63 19.0001C197.39 18.1893 196.832 17.7568 195.954 17.7028Z" fill="black"/>
<path d="M202.763 30.054L202.79 28.5945C202.79 28.4594 202.763 28.4053 202.737 28.4053V27.7296C202.737 23.7296 202.949 20.8918 203.402 19.2161C203.774 17.7837 204.146 16.9188 204.492 16.5675C204.838 16.2431 205.184 16.054 205.53 16.054C208.429 16.054 210.45 17.5404 211.541 20.5134C212.179 22.2161 212.499 24.3242 212.499 26.8377V27.108L212.578 31.4323C212.578 38.7296 210.903 42.4053 207.578 42.4053C206.194 42.4053 205.131 41.6215 204.412 40.081C203.721 38.5945 203.295 37.135 203.136 35.6756C202.87 33.5404 202.763 31.6486 202.763 30.054ZM204.971 24.8377L204.785 28.3513C204.785 32.0269 205.077 35.2431 205.662 37.9999C206.274 39.5945 206.886 40.5404 207.445 40.8377C207.897 40.8377 208.296 40.6486 208.668 40.2702C209.041 39.8918 209.333 39.4053 209.546 38.7837C209.759 38.1621 209.945 37.4864 210.078 36.8107C210.211 36.135 210.317 35.4053 210.397 34.6215C210.53 33.2702 210.583 32.108 210.583 31.1621C210.583 30.2161 210.504 28.7296 210.344 26.7567C210.184 24.7837 210.105 23.3242 210.105 22.3513V21.6756C210.078 20.7567 209.785 19.9188 209.2 19.1891C208.615 18.4594 207.897 18.108 206.992 18.108C206.141 18.108 205.556 18.5945 205.29 19.5675C205.051 20.3783 204.944 21.4053 204.944 22.5945L204.971 24.8377Z" fill="black"/>
<path d="M224.016 24.7026L224.043 25.3512C224.043 36.6215 222.42 42.2701 219.202 42.2701C217.952 42.2701 217.021 41.7566 216.435 40.7296C215.824 39.6756 215.425 38.5945 215.292 37.5404C215.079 35.9188 214.972 34.0539 214.946 31.9458C214.919 29.8377 214.893 26.8107 214.893 22.8377L214.733 17.4053C214.972 16.8647 215.238 16.5945 215.531 16.5945C215.824 16.5945 216.09 16.8377 216.329 17.2972C216.568 17.7566 216.675 18.2431 216.675 18.7837V29.162C216.675 30.081 216.755 31.4053 216.941 33.1891C217.127 34.9729 217.207 36.3242 217.207 37.2161C217.207 39.081 218.005 39.9999 219.601 39.9999C221.383 39.9999 222.287 33.162 222.287 19.5134V17.3783L222.261 16.7566C222.261 16.4593 222.34 16.2431 222.473 16.081C222.606 15.9188 222.846 15.8647 223.192 15.8647C223.537 15.8647 223.777 15.9188 223.963 16.0269C224.123 16.135 224.229 16.2702 224.309 16.4864C224.415 16.7837 224.468 17.2161 224.468 17.7026L224.202 21.5404L224.016 24.7026Z" fill="black"/>
<path d="M227.022 25.2432L227.075 21.6216C227.075 20.0811 226.969 18.8919 226.783 18.0811C226.942 17.1892 227.288 16.7297 227.793 16.7297H229.442C230.879 16.7297 231.89 17.3514 232.475 18.5676C232.98 19.6487 233.246 20.8919 233.246 22.2973C233.246 24.0811 233.193 25.1622 233.113 25.5676C233.033 25.973 232.927 26.3514 232.847 26.7027C232.741 27.0541 232.634 27.3514 232.501 27.5676C232.368 27.7838 232.182 28.027 231.969 28.2973C231.757 28.5676 231.491 28.7838 231.225 28.973C230.613 29.3784 229.841 29.7297 228.964 30.027V34.1081L229.256 41.3243C229.256 41.6216 229.123 41.8919 228.884 42.1081C228.618 42.3243 228.325 42.4324 228.006 42.4324L227.208 41.973C226.916 40.5676 226.756 38.7027 226.756 36.3784L226.916 29.5946C226.756 29.2703 226.703 28.946 226.703 28.6757V28.5405C226.916 28.027 227.022 26.9189 227.022 25.2432ZM228.911 20.946L228.99 28.3784V28.4324C230.48 28.2432 231.225 26.0811 231.225 22C231.225 20.7838 231.065 19.973 230.772 19.5405C230.453 19.0811 229.974 18.8649 229.309 18.8649C229.309 18.8378 229.176 18.8108 228.911 18.8108V20.946Z" fill="black"/>
<path d="M56.9035 24.3301C55.9427 22.7892 54.0393 21.2664 51.7189 20.0156C50.0511 24.457 47.4407 28.6445 44.9935 30.1672C42.0749 31.9982 36.0745 31.4181 31.0894 29.1702C30.9625 29.7322 30.8537 30.3123 30.7631 30.8742C36.002 31.1643 43.2713 33.9197 45.0297 36.9471C46.0449 38.6873 45.9542 41.6966 45.211 44.7421C47.6401 44.8146 49.8155 44.4158 51.2113 43.3825C55.7252 40.0651 59.8221 29.0252 56.9035 24.3301Z" fill="#C1D780"/>
<path d="M31.2706 38.5422C30.3823 36.7475 30.3098 33.9014 30.7811 30.8922C30.2192 30.8559 29.6935 30.8559 29.1859 30.8922C30.9624 35.7142 26.7024 46.2828 22.533 50.0715C26.5573 54.7304 36.4189 56.2168 39.972 54.0234C42.1836 52.6638 44.2502 48.6756 45.2291 44.7419C39.7363 44.5787 32.9746 41.9864 31.2706 38.5422Z" fill="#BCDCB8"/>
<path d="M45.0478 36.9469C43.2894 33.9195 36.0382 31.1641 30.7811 30.874C30.3098 33.8833 30.3823 36.7293 31.2706 38.524C32.9746 41.9864 39.7363 44.5787 45.229 44.7237C45.9723 41.7145 46.0629 38.7053 45.0478 36.9469Z" fill="#44AC3F"/>
<path d="M8.19381 23.4053C13.2334 21.9369 24.8352 25.0731 28.352 29.46C28.6964 29.0975 29.0228 28.7168 29.3491 28.2998C26.7205 26.8133 24.5633 24.8193 23.6206 22.4626C21.5722 17.2962 24.1464 7.39837 28.0801 2.75763C22.968 0.274114 15.6262 -0.360362 11.3662 0.691055C4.85828 2.32257 0.652614 13.5437 2.42915 21.7013C2.75545 23.224 3.62559 24.6017 4.84016 25.8344C5.85532 24.638 6.99737 23.7497 8.19381 23.4053Z" fill="#9ECA7A"/>
<path d="M26.5573 31.4541C27.2462 31.1096 28.1345 30.9283 29.1678 30.874C29.059 30.602 28.9502 30.3483 28.8052 30.1126C28.6783 29.8951 28.5152 29.6775 28.3339 29.46C27.5181 30.312 26.6299 30.9465 25.7053 31.309C20.7383 33.2668 9.78905 30.874 4.80389 25.8525C0.99703 30.3845 -1.2327 39.6116 0.634472 43.5272C3.00923 48.5124 16.7139 53.7876 21.409 50.9053C21.7716 50.6877 22.1341 50.3977 22.4967 50.0714C22.0798 49.5819 21.7353 49.0744 21.4453 48.5305C19.3968 44.3974 22.4061 33.5025 26.5573 31.4541Z" fill="#A3D3BF"/>
<path d="M29.1859 30.874C28.1526 30.9284 27.2462 31.1097 26.5755 31.4541C22.4061 33.5026 19.4149 44.3974 21.4997 48.5124C21.7716 49.0563 22.1341 49.582 22.5511 50.0533C26.7024 46.2646 30.9624 35.696 29.1859 30.874Z" fill="#41B284"/>
<path d="M25.7235 31.3092C26.6481 30.9466 27.5363 30.294 28.3521 29.4602C24.8353 25.0732 13.2515 21.9371 8.19387 23.4054C6.99743 23.7499 5.85537 24.6381 4.84021 25.8527C9.82538 30.8741 20.7565 33.267 25.7235 31.3092Z" fill="#41B284"/>
<path d="M32.7751 6.54643C35.6937 11.0603 33.6815 22.5534 29.3489 28.2818C29.9109 28.6081 30.5091 28.8981 31.1073 29.17C32.195 24.3299 34.5697 19.4354 37.3252 17.8401C40.5701 15.9729 46.9873 17.4232 51.7187 19.9973C53.4046 15.4835 54.0935 10.6977 52.5707 8.19607C49.5434 3.28341 35.8749 -1.84679 30.636 0.654862C29.7477 1.0718 28.8957 1.81505 28.08 2.7577C30.1103 3.7366 31.778 5.00556 32.7751 6.54643Z" fill="#A3D09F"/>
<path d="M37.3253 17.8582C34.5698 19.4353 32.177 24.3479 31.1074 29.1881C36.0926 31.4359 42.0929 31.9979 45.0115 30.1851C47.4588 28.6624 50.0692 24.4748 51.7369 20.0335C46.9874 17.4412 40.5702 15.991 37.3253 17.8582Z" fill="#44AC3F"/>
<path d="M23.6206 22.4628C24.5451 24.8194 26.7023 26.8135 29.349 28.2999C33.6997 22.5534 35.7119 11.0785 32.7751 6.56461C31.76 5.00561 30.0922 3.75478 28.08 2.77588C24.1463 7.39849 21.5902 17.2963 23.6206 22.4628Z" fill="#44AC3F"/>
<path d="M29.186 26.9403C29.1135 26.9403 29.041 26.8859 29.041 26.7953L28.2252 3.93604C28.2252 3.86353 28.2796 3.79102 28.3702 3.79102C28.4609 3.79102 28.5153 3.8454 28.5153 3.93604L29.331 26.7953C29.331 26.8678 29.2585 26.9222 29.186 26.9403Z" fill="#E1EDD4"/>
<path d="M29.0771 23.9493C29.0408 23.9493 29.0046 23.9311 28.9683 23.8949C28.9139 23.8405 28.9139 23.7498 28.9865 23.6955L32.3039 20.7587C32.3582 20.7044 32.4489 20.7044 32.5033 20.7769C32.5576 20.8312 32.5576 20.9219 32.4851 20.9763L29.1677 23.913C29.1496 23.9492 29.1134 23.9493 29.0771 23.9493Z" fill="#E1EDD4"/>
<path d="M29.0046 20.1606C28.9683 20.1606 28.9321 20.1424 28.8958 20.1062C28.8414 20.0518 28.8414 19.9612 28.9139 19.9068L33.4822 15.8461C33.5366 15.7918 33.6272 15.7918 33.6816 15.8643C33.736 15.9186 33.736 16.0093 33.6635 16.0637L29.0952 20.1243C29.0771 20.1424 29.0408 20.1606 29.0046 20.1606Z" fill="#E1EDD4"/>
<path d="M28.8233 16.5532C28.7871 16.5532 28.7508 16.535 28.7145 16.4988C28.6602 16.4444 28.6602 16.3537 28.7327 16.2994L33.3009 12.2387C33.3553 12.1843 33.4459 12.1843 33.5003 12.2568C33.5547 12.3112 33.5547 12.4019 33.4822 12.4563L28.914 16.5169C28.8958 16.535 28.8596 16.5532 28.8233 16.5532Z" fill="#E1EDD4"/>
<path d="M28.6964 12.4924C28.6601 12.4924 28.6238 12.4743 28.5876 12.438C28.5332 12.3837 28.5332 12.293 28.6057 12.2386L32.9564 8.37739C33.0108 8.323 33.1014 8.323 33.1558 8.39552C33.2102 8.4499 33.2102 8.54054 33.1377 8.59492L28.787 12.4562C28.7689 12.4924 28.7326 12.4924 28.6964 12.4924Z" fill="#E1EDD4"/>
<path d="M28.5513 9.26558C28.5151 9.26558 28.4788 9.24745 28.4426 9.2112C28.3882 9.15681 28.3882 9.06617 28.4607 9.01179L31.5062 6.31074C31.5606 6.25635 31.6512 6.25635 31.7056 6.32887C31.76 6.38325 31.76 6.47389 31.6875 6.52827L28.642 9.22933C28.6239 9.24745 28.5876 9.26558 28.5513 9.26558Z" fill="#E1EDD4"/>
<path d="M29.0047 21.9733C28.9866 21.9733 28.9685 21.9733 28.9503 21.9551L23.3851 19.6166C23.3126 19.5804 23.2763 19.5079 23.3126 19.4354C23.3488 19.3629 23.4213 19.3266 23.4938 19.3629L29.0591 21.7014C29.1316 21.7376 29.1679 21.8101 29.1316 21.8826C29.1135 21.937 29.0591 21.9733 29.0047 21.9733Z" fill="#E1EDD4"/>
<path d="M28.769 18.3296C28.7509 18.3296 28.7327 18.3296 28.7146 18.3115L23.4031 16.0817C23.3306 16.0455 23.2944 15.973 23.3306 15.9005C23.3669 15.8279 23.4394 15.7917 23.5119 15.8279L28.8234 18.0395C28.8959 18.0758 28.9321 18.1483 28.8959 18.2208C28.8778 18.2933 28.8234 18.3296 28.769 18.3296Z" fill="#E1EDD4"/>
<path d="M28.6965 14.5227C28.6783 14.5227 28.6602 14.5227 28.6421 14.5046L24.0195 12.5649C23.947 12.5286 23.9107 12.4561 23.947 12.3836C23.9832 12.3111 24.0557 12.2748 24.1282 12.3111L28.7509 14.2508C28.8234 14.287 28.8596 14.3595 28.8234 14.4321C28.8052 14.4864 28.769 14.5227 28.6965 14.5227Z" fill="#E1EDD4"/>
<path d="M28.5877 10.7157C28.5696 10.7157 28.5515 10.7157 28.5334 10.6976L25.0165 9.2292C24.944 9.19294 24.9078 9.12043 24.944 9.04792C24.9803 8.97541 25.0528 8.93915 25.1253 8.9754L28.6421 10.4438C28.7146 10.48 28.7509 10.5525 28.7146 10.625C28.6965 10.6976 28.6421 10.7157 28.5877 10.7157Z" fill="#E1EDD4"/>
<path d="M28.4789 7.32589C28.4608 7.32589 28.4427 7.32589 28.4246 7.30777L26.213 6.38325C26.1404 6.34699 26.1042 6.27448 26.1404 6.20197C26.1767 6.12946 26.2492 6.0932 26.3217 6.12946L28.5333 7.05398C28.6058 7.09023 28.6421 7.16274 28.6058 7.23526C28.5877 7.30777 28.5333 7.32589 28.4789 7.32589Z" fill="#E1EDD4"/>
<path d="M29.1315 25.6532C29.1134 25.6532 29.1134 25.6532 29.0953 25.6532L25.1615 24.5293C25.089 24.5112 25.0346 24.4205 25.0709 24.348C25.089 24.2755 25.1796 24.2211 25.2521 24.2574L29.1859 25.3813C29.2584 25.3994 29.3128 25.4901 29.2765 25.5626C29.2584 25.5989 29.204 25.6532 29.1315 25.6532Z" fill="#E1EDD4"/>
<path d="M27.1737 29.6231H27.1556L5.67401 25.9976C5.6015 25.9794 5.54712 25.9069 5.54712 25.8344C5.56525 25.7619 5.63776 25.7075 5.71027 25.7075L27.1918 29.3331C27.2643 29.3512 27.3187 29.4237 27.3187 29.4962C27.3006 29.5688 27.2281 29.6231 27.1737 29.6231Z" fill="#E1EDD4"/>
<path d="M22.9137 31.599C22.8775 31.599 22.8412 31.5809 22.8049 31.5628C22.7506 31.5084 22.7506 31.4177 22.8049 31.3633L25.0891 29.043C25.1435 28.9886 25.2341 28.9886 25.2885 29.043C25.3429 29.0974 25.3429 29.188 25.2885 29.2424L23.0044 31.5628C22.9862 31.599 22.95 31.599 22.9137 31.599Z" fill="#E1EDD4"/>
<path d="M19.6507 31.5992C19.6144 31.5992 19.5781 31.581 19.5419 31.5629C19.4875 31.5085 19.4875 31.4179 19.5419 31.3635L22.2973 28.5718C22.3517 28.5174 22.4423 28.5174 22.4967 28.5718C22.5511 28.6262 22.5511 28.7168 22.4967 28.7712L19.7413 31.5629C19.7232 31.5992 19.6869 31.5992 19.6507 31.5992Z" fill="#E1EDD4"/>
<path d="M16.5326 30.9283C16.4964 30.9283 16.4601 30.9102 16.4238 30.8921C16.3695 30.8377 16.3695 30.747 16.4238 30.6927L19.0524 28.0278C19.1068 27.9735 19.1974 27.9735 19.2518 28.0278C19.3062 28.0822 19.3062 28.1729 19.2518 28.2273L16.6233 30.8921C16.6051 30.9102 16.5689 30.9283 16.5326 30.9283Z" fill="#E1EDD4"/>
<path d="M13.7228 30.3483C13.6865 30.3483 13.6503 30.3302 13.614 30.3121C13.5596 30.2577 13.5596 30.1671 13.614 30.1127L16.1338 27.5567C16.1882 27.5023 16.2788 27.5023 16.3332 27.5567C16.3876 27.611 16.3876 27.7017 16.3332 27.7561L13.8134 30.3121C13.7953 30.3483 13.7591 30.3483 13.7228 30.3483Z" fill="#E1EDD4"/>
<path d="M11.2573 29.4781C11.2211 29.4781 11.1848 29.46 11.1486 29.4418C11.0942 29.3875 11.0942 29.2968 11.1486 29.2424L13.2695 27.0852C13.3239 27.0308 13.4146 27.0308 13.4689 27.0852C13.5233 27.1396 13.5233 27.2302 13.4689 27.2846L11.348 29.4418C11.3299 29.4781 11.2936 29.4781 11.2573 29.4781Z" fill="#E1EDD4"/>
<path d="M8.71938 28.3544C8.68312 28.3544 8.64687 28.3362 8.61061 28.3181C8.55623 28.2637 8.55623 28.1731 8.61061 28.1187L10.1877 26.5235C10.2421 26.4691 10.3328 26.4691 10.3871 26.5235C10.4415 26.5778 10.4415 26.6685 10.3871 26.7229L8.81002 28.3181C8.79189 28.3544 8.75564 28.3544 8.71938 28.3544Z" fill="#E1EDD4"/>
<path d="M23.6932 29.0252C23.6388 29.0252 23.5663 28.9889 23.5482 28.9164L22.7687 26.0703C22.7506 25.9978 22.7868 25.9072 22.8775 25.8891C22.95 25.8709 23.0406 25.9072 23.0587 25.9978L23.8382 28.8439C23.8564 28.9164 23.8201 29.007 23.7295 29.0252C23.7114 29.0252 23.6932 29.0252 23.6932 29.0252Z" fill="#E1EDD4"/>
<path d="M20.8109 28.4812C20.7565 28.4812 20.684 28.4449 20.6659 28.3724L19.7413 24.9644C19.7232 24.8919 19.7595 24.8012 19.8501 24.7831C19.9226 24.765 20.0133 24.8012 20.0314 24.8919L20.9559 28.2999C20.974 28.3724 20.9378 28.4631 20.8471 28.4812C20.829 28.4812 20.8109 28.4812 20.8109 28.4812Z" fill="#E1EDD4"/>
<path d="M17.2033 27.9192C17.149 27.9192 17.0765 27.883 17.0583 27.8105L16.025 24.0217C16.0069 23.9492 16.0432 23.8586 16.1338 23.8405C16.2063 23.8223 16.297 23.8586 16.3151 23.9492L17.3484 27.738C17.3665 27.8105 17.3302 27.9011 17.2396 27.9192C17.2215 27.9192 17.2215 27.9192 17.2033 27.9192Z" fill="#E1EDD4"/>
<path d="M14.593 27.4115C14.5386 27.4115 14.4661 27.3752 14.448 27.3027L13.4872 23.7859C13.4691 23.7134 13.5053 23.6228 13.596 23.6046C13.6685 23.5865 13.7591 23.6228 13.7772 23.7134L14.738 27.2302C14.7561 27.3027 14.7199 27.3934 14.6293 27.4115C14.6111 27.4115 14.6111 27.4115 14.593 27.4115Z" fill="#E1EDD4"/>
<path d="M11.3843 26.7953C11.3299 26.7953 11.2574 26.7591 11.2392 26.6866L10.3872 23.5867C10.3691 23.5142 10.4054 23.4235 10.496 23.4054C10.5685 23.3873 10.6591 23.4235 10.6773 23.5142L11.5293 26.6141C11.5474 26.6866 11.5112 26.7772 11.4205 26.7953C11.4205 26.7953 11.4024 26.7953 11.3843 26.7953Z" fill="#E1EDD4"/>
<path d="M8.37497 26.3421C8.32058 26.3421 8.24807 26.3058 8.22995 26.2333L7.66798 24.1668C7.64986 24.0943 7.68611 24.0036 7.77675 23.9855C7.84926 23.9674 7.9399 24.0036 7.95803 24.0943L8.51999 26.1608C8.53812 26.2333 8.50186 26.324 8.41122 26.3421C8.39309 26.3421 8.37497 26.3421 8.37497 26.3421Z" fill="#E1EDD4"/>
<path d="M32.1226 28.8256C32.0682 28.8256 32.0138 28.7893 31.9957 28.735C31.9594 28.6624 31.9957 28.5718 32.0682 28.5355L50.5043 20.1605C50.5768 20.1242 50.6674 20.1605 50.7037 20.233C50.7399 20.3055 50.7037 20.3961 50.6311 20.4324L32.1951 28.8075C32.1769 28.8075 32.1407 28.8256 32.1226 28.8256Z" fill="#E1EDD4"/>
<path d="M36.6365 30.3482C36.6002 30.3482 36.5821 30.3482 36.564 30.33L33.5004 28.2453C33.4279 28.2091 33.4097 28.1184 33.4641 28.0459C33.5004 27.9734 33.591 27.9553 33.6635 28.0096L36.7271 30.0944C36.7996 30.1306 36.8178 30.2213 36.7634 30.2938C36.7271 30.33 36.6727 30.3482 36.6365 30.3482Z" fill="#E1EDD4"/>
<path d="M41.9662 30.6747C41.9299 30.6747 41.9118 30.6747 41.8937 30.6566L36.3466 26.8679C36.2741 26.8316 36.2559 26.741 36.3103 26.6685C36.3466 26.596 36.4372 26.5778 36.5097 26.6322L42.0568 30.4209C42.1293 30.4572 42.1475 30.5478 42.0931 30.6203C42.0568 30.6566 42.0025 30.6747 41.9662 30.6747Z" fill="#E1EDD4"/>
<path d="M44.9573 29.3151C44.921 29.3151 44.9029 29.3151 44.8848 29.297L39.3377 25.5082C39.2651 25.472 39.247 25.3814 39.3014 25.3088C39.3377 25.2363 39.4283 25.2182 39.5008 25.2726L45.0479 29.0613C45.1204 29.0976 45.1386 29.1882 45.0842 29.2607C45.0479 29.297 44.9935 29.3151 44.9573 29.3151Z" fill="#E1EDD4"/>
<path d="M47.1507 26.9583C47.1144 26.9583 47.0963 26.9583 47.0782 26.9401L42.7456 23.9853C42.6731 23.949 42.655 23.8584 42.7094 23.7859C42.7456 23.7134 42.8362 23.6953 42.9088 23.7496L47.2413 26.7045C47.3138 26.7407 47.332 26.8314 47.2776 26.9039C47.2413 26.9401 47.187 26.9583 47.1507 26.9583Z" fill="#E1EDD4"/>
<path d="M48.746 25.0913C48.7097 25.0913 48.6916 25.0913 48.6735 25.0732L45.3198 22.7709C45.2473 22.7347 45.2292 22.644 45.2836 22.5715C45.3198 22.499 45.4105 22.4809 45.483 22.5353L48.8185 24.8194C48.891 24.8556 48.9092 24.9463 48.8548 25.0188C48.8366 25.055 48.8004 25.0913 48.746 25.0913Z" fill="#E1EDD4"/>
<path d="M50.0693 22.626C50.033 22.626 50.0149 22.626 49.9968 22.6078L48.329 21.4658C48.2565 21.4295 48.2383 21.3389 48.2927 21.2664C48.329 21.1939 48.4196 21.1757 48.4921 21.2301L50.1599 22.3722C50.2324 22.4084 50.2506 22.4991 50.1962 22.5716C50.1599 22.6078 50.1055 22.626 50.0693 22.626Z" fill="#E1EDD4"/>
<path d="M35.2224 27.4117C35.1499 27.4117 35.0774 27.3573 35.0774 27.2666L34.9686 21.2119C34.9686 21.1394 35.023 21.0669 35.1136 21.0669C35.1862 21.0669 35.2587 21.1213 35.2587 21.2119L35.3674 27.2666C35.3674 27.3573 35.2949 27.4117 35.2224 27.4117Z" fill="#E1EDD4"/>
<path d="M38.1954 25.9977C38.1229 25.9977 38.0504 25.9433 38.0504 25.8527L37.9417 18.1846C37.9417 18.1121 37.996 18.0396 38.0867 18.0396C38.1592 18.0396 38.2317 18.0939 38.2317 18.1846L38.3405 25.8527C38.3405 25.9252 38.2861 25.9977 38.1954 25.9977Z" fill="#E1EDD4"/>
<path d="M41.3497 24.6382C41.2772 24.6382 41.2047 24.5838 41.2047 24.4932L41.0959 17.7314C41.0959 17.6589 41.1503 17.5864 41.241 17.5864C41.3135 17.5864 41.386 17.6408 41.386 17.7314L41.4948 24.4932C41.4948 24.5657 41.4222 24.6382 41.3497 24.6382Z" fill="#E1EDD4"/>
<path d="M44.3408 23.1878C44.2683 23.1878 44.1958 23.1334 44.1958 23.0428L44.087 17.9851C44.087 17.9126 44.1414 17.8401 44.2321 17.8401C44.3046 17.8401 44.3771 17.8945 44.3771 17.9851L44.4859 23.0428C44.4859 23.1153 44.4134 23.1878 44.3408 23.1878Z" fill="#E1EDD4"/>
<path d="M47.0962 21.9733C47.0237 21.9733 46.9512 21.9189 46.9512 21.8283L46.8787 18.6196C46.8787 18.5471 46.933 18.4746 47.0237 18.4746C47.0962 18.4746 47.1687 18.529 47.1687 18.6196L47.2412 21.8283C47.2412 21.9008 47.1868 21.9552 47.0962 21.9733Z" fill="#E1EDD4"/>
<path d="M22.5329 49.0564C22.5148 49.0564 22.4967 49.0564 22.4786 49.0564C22.406 49.0383 22.3698 48.9476 22.3879 48.8751L28.6239 31.418C28.642 31.3455 28.7327 31.3092 28.8052 31.3274C28.8777 31.3455 28.914 31.4361 28.8958 31.5087L22.6598 48.9658C22.6417 49.0202 22.5873 49.0564 22.5329 49.0564Z" fill="#E1EDD4"/>
<path d="M25.1977 33.267C25.1252 33.267 25.0708 33.2126 25.0527 33.1582C25.0346 33.0857 25.089 32.995 25.1615 32.9769L28.4064 32.2518C28.4789 32.2337 28.5695 32.2881 28.5876 32.3606C28.6058 32.4331 28.5514 32.5237 28.4789 32.5419L25.234 33.267C25.2159 33.267 25.2159 33.267 25.1977 33.267Z" fill="#E1EDD4"/>
<path d="M23.7113 35.8229C23.6388 35.8229 23.5844 35.7685 23.5663 35.7141C23.5481 35.6416 23.6025 35.551 23.675 35.5328L27.5363 34.6627C27.6088 34.6446 27.6994 34.6989 27.7175 34.7715C27.7357 34.844 27.6813 34.9346 27.6088 34.9527L23.7475 35.8229C23.7294 35.8229 23.7113 35.8229 23.7113 35.8229Z" fill="#E1EDD4"/>
<path d="M22.6235 38.3608C22.551 38.3608 22.4966 38.3064 22.4785 38.2521C22.4604 38.1796 22.5147 38.0889 22.5873 38.0708L26.6298 37.1644C26.7023 37.1463 26.7929 37.2007 26.811 37.2732C26.8292 37.3457 26.7748 37.4363 26.7023 37.4544L22.6598 38.3608C22.6416 38.3608 22.6235 38.3608 22.6235 38.3608Z" fill="#E1EDD4"/>
<path d="M21.9167 40.7538C21.8442 40.7538 21.7898 40.6994 21.7717 40.645C21.7536 40.5725 21.808 40.4819 21.8805 40.4638L25.7417 39.5936C25.8142 39.5755 25.9049 39.6299 25.923 39.7024C25.9411 39.7749 25.8867 39.8655 25.8142 39.8837L21.953 40.7538C21.9349 40.7538 21.9167 40.7538 21.9167 40.7538Z" fill="#E1EDD4"/>
<path d="M21.4635 43.0923C21.391 43.0923 21.3366 43.038 21.3185 42.9836C21.3003 42.9111 21.3547 42.8204 21.4272 42.8023L24.8534 42.0228C24.9259 42.0047 25.0165 42.0591 25.0347 42.1316C25.0528 42.2041 24.9984 42.2947 24.9259 42.3128L21.4997 43.0923C21.4816 43.0923 21.4635 43.0923 21.4635 43.0923Z" fill="#E1EDD4"/>
<path d="M21.4089 45.4128C21.3364 45.4128 21.282 45.3584 21.2639 45.304C21.2458 45.2315 21.3001 45.1409 21.3727 45.1227L24.0012 44.5245C24.0737 44.5064 24.1644 44.5608 24.1825 44.6333C24.2006 44.7058 24.1462 44.7964 24.0737 44.8146L21.4452 45.4128C21.427 45.4128 21.427 45.4128 21.4089 45.4128Z" fill="#E1EDD4"/>
<path d="M21.4635 47.189C21.391 47.189 21.3366 47.1346 21.3185 47.0803C21.3003 47.0077 21.3547 46.9171 21.4272 46.899L23.24 46.482C23.3125 46.4639 23.4032 46.5183 23.4213 46.5908C23.4394 46.6633 23.385 46.7539 23.3125 46.7721L21.4997 47.189C21.4816 47.189 21.4635 47.189 21.4635 47.189Z" fill="#E1EDD4"/>
<path d="M29.1859 35.533C29.1315 35.533 29.0953 35.5148 29.059 35.4604L27.8807 33.6658C27.8444 33.5933 27.8626 33.5026 27.9169 33.4664C27.9894 33.4301 28.0801 33.4482 28.1163 33.5026L29.2947 35.2973C29.3309 35.3698 29.3128 35.4604 29.2584 35.4967C29.2403 35.533 29.204 35.533 29.1859 35.533Z" fill="#E1EDD4"/>
<path d="M28.352 37.9077C28.2976 37.9077 28.2614 37.8896 28.2251 37.8352L27.0468 36.0405C27.0106 35.968 27.0287 35.8774 27.0831 35.8411C27.1556 35.8049 27.2462 35.823 27.2825 35.8774L28.4608 37.672C28.497 37.7445 28.4789 37.8352 28.4245 37.8714C28.4064 37.9077 28.3883 37.9077 28.352 37.9077Z" fill="#E1EDD4"/>
<path d="M27.8444 40.8624C27.79 40.8624 27.7538 40.8443 27.7175 40.7899L26.1948 38.4514C26.1585 38.3789 26.1766 38.2883 26.231 38.252C26.3035 38.2158 26.3942 38.2339 26.4304 38.2883L27.9532 40.6268C27.9894 40.6993 27.9713 40.7899 27.9169 40.8262C27.8988 40.8443 27.8807 40.8624 27.8444 40.8624Z" fill="#E1EDD4"/>
<path d="M26.6661 42.911C26.6117 42.911 26.5754 42.8929 26.5392 42.8385L25.3065 40.9351C25.2702 40.8626 25.2883 40.7719 25.3427 40.7357C25.4152 40.6994 25.5059 40.7175 25.5421 40.7719L26.7748 42.6753C26.8111 42.7479 26.793 42.8385 26.7386 42.8748C26.7204 42.911 26.6842 42.911 26.6661 42.911Z" fill="#E1EDD4"/>
<path d="M25.651 44.9775C25.5966 44.9775 25.5603 44.9594 25.5241 44.905L24.4545 43.2554C24.4183 43.1829 24.4364 43.0922 24.4908 43.056C24.5633 43.0197 24.6539 43.0378 24.6902 43.0922L25.7597 44.7419C25.796 44.8144 25.7779 44.905 25.7235 44.9413C25.7054 44.9775 25.6872 44.9775 25.651 44.9775Z" fill="#E1EDD4"/>
<path d="M24.6358 46.8447C24.5814 46.8447 24.5451 46.8266 24.5089 46.7722L23.7112 45.5576C23.675 45.4851 23.6931 45.3945 23.7475 45.3582C23.82 45.322 23.9107 45.3401 23.9469 45.3945L24.7445 46.609C24.7808 46.6816 24.7627 46.7722 24.7083 46.8085C24.6902 46.8266 24.672 46.8447 24.6358 46.8447Z" fill="#E1EDD4"/>
<path d="M23.5481 48.4037C23.4937 48.4037 23.4574 48.3856 23.4212 48.3312L22.9317 47.5698C22.8954 47.4973 22.9136 47.4067 22.968 47.3704C23.0405 47.3342 23.1311 47.3523 23.1674 47.4067L23.6568 48.168C23.6931 48.2406 23.675 48.3312 23.6206 48.3674C23.6024 48.4037 23.5662 48.4037 23.5481 48.4037Z" fill="#E1EDD4"/>
<path d="M44.5946 44.1618C44.5584 44.1618 44.5221 44.1436 44.504 44.1255L31.0169 31.581C30.9625 31.5266 30.9625 31.436 31.0169 31.3816C31.0712 31.3272 31.1619 31.3272 31.2163 31.3816L44.7034 43.9261C44.7578 43.9805 44.7578 44.0711 44.7034 44.1255C44.6672 44.1436 44.6309 44.1618 44.5946 44.1618Z" fill="#E1EDD4"/>
<path d="M31.2887 36.4757H31.2706C31.1981 36.4575 31.1437 36.385 31.1618 36.3125L31.8688 32.27C31.887 32.1975 31.9595 32.1431 32.032 32.1612C32.1045 32.1794 32.1589 32.2519 32.1408 32.3244L31.4338 36.3669C31.4338 36.4213 31.3612 36.4757 31.2887 36.4757Z" fill="#E1EDD4"/>
<path d="M33.0652 40.0285H33.0471C32.9746 40.0104 32.9202 39.9379 32.9383 39.8654L33.9172 34.2639C33.9354 34.1914 34.0079 34.137 34.0804 34.1551C34.1529 34.1733 34.2073 34.2458 34.1891 34.3183L33.2102 39.9198C33.1921 39.9742 33.1377 40.0285 33.0652 40.0285Z" fill="#E1EDD4"/>
<path d="M35.168 41.6964H35.1499C35.0774 41.6783 35.023 41.6058 35.0411 41.5332L35.9838 36.113C36.0019 36.0405 36.0744 35.9861 36.1469 36.0042C36.2194 36.0224 36.2738 36.0949 36.2557 36.1674L35.313 41.5876C35.2949 41.642 35.2405 41.6964 35.168 41.6964Z" fill="#E1EDD4"/>
<path d="M37.434 42.6935H37.4159C37.3434 42.6754 37.289 42.6029 37.3071 42.5304L38.0685 38.1072C38.0866 38.0346 38.1591 37.9803 38.2316 37.9984C38.3041 38.0165 38.3585 38.089 38.3404 38.1615L37.579 42.5847C37.5609 42.6573 37.5065 42.6935 37.434 42.6935Z" fill="#E1EDD4"/>
<path d="M39.8269 43.509H39.8088C39.7363 43.4909 39.6819 43.4184 39.7 43.3459L40.262 40.1191C40.2801 40.0466 40.3527 39.9922 40.4252 40.0103C40.4977 40.0285 40.5521 40.101 40.5339 40.1735L39.972 43.4003C39.9538 43.4547 39.8995 43.509 39.8269 43.509Z" fill="#E1EDD4"/>
<path d="M42.0929 43.926H42.0748C42.0023 43.9079 41.9479 43.8354 41.966 43.7629L42.2742 41.9682C42.2923 41.8957 42.3649 41.8413 42.4374 41.8595C42.5099 41.8776 42.5643 41.9501 42.5461 42.0226L42.238 43.8173C42.238 43.8716 42.1654 43.926 42.0929 43.926Z" fill="#E1EDD4"/>
<path d="M33.1377 33.5026C33.0652 33.5026 33.0108 33.4664 32.9926 33.3938C32.9745 33.3213 33.0289 33.2307 33.1014 33.2126L36.6001 32.3968C36.6726 32.3787 36.7633 32.4331 36.7814 32.5056C36.7995 32.5781 36.7451 32.6687 36.6726 32.6869L33.1739 33.5026C33.1558 33.5026 33.1558 33.5026 33.1377 33.5026Z" fill="#E1EDD4"/>
<path d="M34.8781 35.0435C34.8056 35.0435 34.7513 35.0072 34.7331 34.9347C34.715 34.8622 34.7694 34.7715 34.8419 34.7534L39.6095 33.6295C39.682 33.6114 39.7727 33.6657 39.7908 33.7383C39.8089 33.8108 39.7545 33.9014 39.682 33.9195L34.9144 35.0435C34.8963 35.0435 34.8963 35.0435 34.8781 35.0435Z" fill="#E1EDD4"/>
<path d="M36.7995 36.838C36.727 36.838 36.6726 36.8018 36.6545 36.7293C36.6364 36.6568 36.6908 36.5661 36.7633 36.548L42.673 35.1703C42.7455 35.1521 42.8361 35.2065 42.8543 35.279C42.8724 35.3515 42.818 35.4422 42.7455 35.4603L36.8358 36.838C36.8177 36.838 36.8177 36.838 36.7995 36.838Z" fill="#E1EDD4"/>
<path d="M39.0112 38.8866C38.9387 38.8866 38.8843 38.8503 38.8662 38.7778C38.8481 38.7053 38.9024 38.6147 38.975 38.5966L44.5583 37.2914C44.6309 37.2732 44.7215 37.3276 44.7396 37.4001C44.7578 37.4726 44.7034 37.5633 44.6309 37.5814L39.0475 38.8866C39.0293 38.8866 39.0112 38.8866 39.0112 38.8866Z" fill="#E1EDD4"/>
<path d="M41.0053 40.7539C40.9328 40.7539 40.8785 40.7177 40.8603 40.6451C40.8422 40.5726 40.8966 40.482 40.9691 40.4639L45.1204 39.485C45.1929 39.4668 45.2835 39.5212 45.3017 39.5937C45.3198 39.6662 45.2654 39.7569 45.1929 39.775L41.0416 40.7539C41.0235 40.7539 41.0053 40.7539 41.0053 40.7539Z" fill="#E1EDD4"/>
<path d="M42.9812 42.6208C42.9087 42.6208 42.8543 42.5846 42.8362 42.5121C42.818 42.4396 42.8724 42.3489 42.9449 42.3308L45.229 41.787C45.3016 41.7688 45.3922 41.8232 45.4103 41.8957C45.4284 41.9682 45.3741 42.0589 45.3016 42.077L43.0174 42.6208C42.9993 42.6208 42.9993 42.6208 42.9812 42.6208Z" fill="#E1EDD4"/>
</g>
<defs>
<clipPath id="clip0">
<rect width="248" height="55.5298" fill="white"/>
</clipPath>
</defs>
</svg>
