<svg width="279" height="235" viewBox="0 0 279 235" fill="none" xmlns="http://www.w3.org/2000/svg">
<path d="M3.05753 6.11519C4.74616 6.11519 6.11507 4.74629 6.11507 3.05766C6.11507 1.36903 4.74616 0.00012207 3.05753 0.00012207C1.3689 0.00012207 0 1.36903 0 3.05766C0 4.74629 1.3689 6.11519 3.05753 6.11519Z" fill="#C8C33E"/>
<path d="M48.5385 6.11495C50.2271 6.11495 51.596 4.74604 51.596 3.05741C51.596 1.36878 50.2271 -0.00012207 48.5385 -0.00012207C46.8499 -0.00012207 45.481 1.36878 45.481 3.05741C45.481 4.74604 46.8499 6.11495 48.5385 6.11495Z" fill="#C8C33E"/>
<path d="M94.019 6.11495C95.7076 6.11495 97.0765 4.74604 97.0765 3.05741C97.0765 1.36878 95.7076 -0.00012207 94.019 -0.00012207C92.3303 -0.00012207 90.9614 1.36878 90.9614 3.05741C90.9614 4.74604 92.3303 6.11495 94.019 6.11495Z" fill="#C8C33E"/>
<path d="M139.5 6.11495C141.189 6.11495 142.558 4.74604 142.558 3.05741C142.558 1.36878 141.189 -0.00012207 139.5 -0.00012207C137.812 -0.00012207 136.443 1.36878 136.443 3.05741C136.443 4.74604 137.812 6.11495 139.5 6.11495Z" fill="#C8C33E"/>
<path d="M184.981 6.11495C186.67 6.11495 188.038 4.74604 188.038 3.05741C188.038 1.36878 186.67 -0.00012207 184.981 -0.00012207C183.292 -0.00012207 181.923 1.36878 181.923 3.05741C181.923 4.74604 183.292 6.11495 184.981 6.11495Z" fill="#C8C33E"/>
<path d="M230.462 6.11495C232.15 6.11495 233.519 4.74604 233.519 3.05741C233.519 1.36878 232.15 -0.00012207 230.462 -0.00012207C228.773 -0.00012207 227.404 1.36878 227.404 3.05741C227.404 4.74604 228.773 6.11495 230.462 6.11495Z" fill="#C8C33E"/>
<path d="M3.05753 51.7492C4.74616 51.7492 6.11507 50.3803 6.11507 48.6917C6.11507 47.0031 4.74616 45.6342 3.05753 45.6342C1.3689 45.6342 0 47.0031 0 48.6917C0 50.3803 1.3689 51.7492 3.05753 51.7492Z" fill="#C8C33E"/>
<path d="M48.5385 51.7486C50.2271 51.7486 51.596 50.3797 51.596 48.6911C51.596 47.0024 50.2271 45.6335 48.5385 45.6335C46.8499 45.6335 45.481 47.0024 45.481 48.6911C45.481 50.3797 46.8499 51.7486 48.5385 51.7486Z" fill="#C8C33E"/>
<path d="M94.019 51.7486C95.7076 51.7486 97.0765 50.3797 97.0765 48.6911C97.0765 47.0024 95.7076 45.6335 94.019 45.6335C92.3303 45.6335 90.9614 47.0024 90.9614 48.6911C90.9614 50.3797 92.3303 51.7486 94.019 51.7486Z" fill="#C8C33E"/>
<path d="M139.5 51.7486C141.189 51.7486 142.558 50.3797 142.558 48.6911C142.558 47.0024 141.189 45.6335 139.5 45.6335C137.812 45.6335 136.443 47.0024 136.443 48.6911C136.443 50.3797 137.812 51.7486 139.5 51.7486Z" fill="#C8C33E"/>
<path d="M184.981 51.7486C186.67 51.7486 188.038 50.3797 188.038 48.6911C188.038 47.0024 186.67 45.6335 184.981 45.6335C183.292 45.6335 181.923 47.0024 181.923 48.6911C181.923 50.3797 183.292 51.7486 184.981 51.7486Z" fill="#C8C33E"/>
<path d="M230.462 51.7486C232.15 51.7486 233.519 50.3797 233.519 48.6911C233.519 47.0024 232.15 45.6335 230.462 45.6335C228.773 45.6335 227.404 47.0024 227.404 48.6911C227.404 50.3797 228.773 51.7486 230.462 51.7486Z" fill="#C8C33E"/>
<path d="M3.05753 97.3061C4.74616 97.3061 6.11507 95.9372 6.11507 94.2486C6.11507 92.5599 4.74616 91.191 3.05753 91.191C1.3689 91.191 0 92.5599 0 94.2486C0 95.9372 1.3689 97.3061 3.05753 97.3061Z" fill="#C8C33E"/>
<path d="M48.5385 97.3061C50.2271 97.3061 51.596 95.9372 51.596 94.2486C51.596 92.5599 50.2271 91.191 48.5385 91.191C46.8499 91.191 45.481 92.5599 45.481 94.2486C45.481 95.9372 46.8499 97.3061 48.5385 97.3061Z" fill="#C8C33E"/>
<path d="M94.019 97.3061C95.7076 97.3061 97.0765 95.9372 97.0765 94.2486C97.0765 92.5599 95.7076 91.191 94.019 91.191C92.3303 91.191 90.9614 92.5599 90.9614 94.2486C90.9614 95.9372 92.3303 97.3061 94.019 97.3061Z" fill="#C8C33E"/>
<path d="M139.5 97.3061C141.189 97.3061 142.558 95.9372 142.558 94.2486C142.558 92.5599 141.189 91.191 139.5 91.191C137.812 91.191 136.443 92.5599 136.443 94.2486C136.443 95.9372 137.812 97.3061 139.5 97.3061Z" fill="#C8C33E"/>
<path d="M184.981 97.3061C186.67 97.3061 188.038 95.9372 188.038 94.2486C188.038 92.5599 186.67 91.191 184.981 91.191C183.292 91.191 181.923 92.5599 181.923 94.2486C181.923 95.9372 183.292 97.3061 184.981 97.3061Z" fill="#C8C33E"/>
<path d="M230.462 97.3061C232.15 97.3061 233.519 95.9372 233.519 94.2486C233.519 92.5599 232.15 91.191 230.462 91.191C228.773 91.191 227.404 92.5599 227.404 94.2486C227.404 95.9372 228.773 97.3061 230.462 97.3061Z" fill="#C8C33E"/>
<path d="M3.05753 142.94C4.74616 142.94 6.11507 141.571 6.11507 139.882C6.11507 138.194 4.74616 136.825 3.05753 136.825C1.3689 136.825 0 138.194 0 139.882C0 141.571 1.3689 142.94 3.05753 142.94Z" fill="#C8C33E"/>
<path d="M48.5385 142.94C50.2271 142.94 51.596 141.571 51.596 139.882C51.596 138.194 50.2271 136.825 48.5385 136.825C46.8499 136.825 45.481 138.194 45.481 139.882C45.481 141.571 46.8499 142.94 48.5385 142.94Z" fill="#C8C33E"/>
<path d="M94.019 142.94C95.7076 142.94 97.0765 141.571 97.0765 139.882C97.0765 138.194 95.7076 136.825 94.019 136.825C92.3303 136.825 90.9614 138.194 90.9614 139.882C90.9614 141.571 92.3303 142.94 94.019 142.94Z" fill="#C8C33E"/>
<path d="M139.5 142.94C141.189 142.94 142.558 141.571 142.558 139.882C142.558 138.194 141.189 136.825 139.5 136.825C137.812 136.825 136.443 138.194 136.443 139.882C136.443 141.571 137.812 142.94 139.5 142.94Z" fill="#C8C33E"/>
<path d="M184.981 142.94C186.67 142.94 188.038 141.571 188.038 139.882C188.038 138.194 186.67 136.825 184.981 136.825C183.292 136.825 181.923 138.194 181.923 139.882C181.923 141.571 183.292 142.94 184.981 142.94Z" fill="#C8C33E"/>
<path d="M230.462 142.94C232.15 142.94 233.519 141.571 233.519 139.882C233.519 138.194 232.15 136.825 230.462 136.825C228.773 136.825 227.404 138.194 227.404 139.882C227.404 141.571 228.773 142.94 230.462 142.94Z" fill="#C8C33E"/>
<path d="M3.05753 188.573C4.74616 188.573 6.11507 187.204 6.11507 185.516C6.11507 183.827 4.74616 182.458 3.05753 182.458C1.3689 182.458 0 183.827 0 185.516C0 187.204 1.3689 188.573 3.05753 188.573Z" fill="#C8C33E"/>
<path d="M48.5385 188.573C50.2271 188.573 51.596 187.204 51.596 185.516C51.596 183.827 50.2271 182.458 48.5385 182.458C46.8499 182.458 45.481 183.827 45.481 185.516C45.481 187.204 46.8499 188.573 48.5385 188.573Z" fill="#C8C33E"/>
<path d="M94.019 188.573C95.7076 188.573 97.0765 187.204 97.0765 185.516C97.0765 183.827 95.7076 182.458 94.019 182.458C92.3303 182.458 90.9614 183.827 90.9614 185.516C90.9614 187.204 92.3303 188.573 94.019 188.573Z" fill="#C8C33E"/>
<path d="M139.5 188.573C141.189 188.573 142.558 187.204 142.558 185.516C142.558 183.827 141.189 182.458 139.5 182.458C137.812 182.458 136.443 183.827 136.443 185.516C136.443 187.204 137.812 188.573 139.5 188.573Z" fill="#C8C33E"/>
<path d="M184.981 188.573C186.67 188.573 188.038 187.204 188.038 185.516C188.038 183.827 186.67 182.458 184.981 182.458C183.292 182.458 181.923 183.827 181.923 185.516C181.923 187.204 183.292 188.573 184.981 188.573Z" fill="#C8C33E"/>
<path d="M230.462 188.573C232.15 188.573 233.519 187.204 233.519 185.516C233.519 183.827 232.15 182.458 230.462 182.458C228.773 182.458 227.404 183.827 227.404 185.516C227.404 187.204 228.773 188.573 230.462 188.573Z" fill="#C8C33E"/>
<path d="M3.05753 234.131C4.74616 234.131 6.11507 232.762 6.11507 231.073C6.11507 229.385 4.74616 228.016 3.05753 228.016C1.3689 228.016 0 229.385 0 231.073C0 232.762 1.3689 234.131 3.05753 234.131Z" fill="#C8C33E"/>
<path d="M48.5385 234.131C50.2271 234.131 51.596 232.762 51.596 231.073C51.596 229.385 50.2271 228.016 48.5385 228.016C46.8499 228.016 45.481 229.385 45.481 231.073C45.481 232.762 46.8499 234.131 48.5385 234.131Z" fill="#C8C33E"/>
<path d="M94.019 234.131C95.7076 234.131 97.0765 232.762 97.0765 231.073C97.0765 229.385 95.7076 228.016 94.019 228.016C92.3303 228.016 90.9614 229.385 90.9614 231.073C90.9614 232.762 92.3303 234.131 94.019 234.131Z" fill="#C8C33E"/>
<path d="M139.5 234.131C141.189 234.131 142.558 232.762 142.558 231.073C142.558 229.385 141.189 228.016 139.5 228.016C137.812 228.016 136.443 229.385 136.443 231.073C136.443 232.762 137.812 234.131 139.5 234.131Z" fill="#C8C33E"/>
<path d="M184.981 234.131C186.67 234.131 188.038 232.762 188.038 231.073C188.038 229.385 186.67 228.016 184.981 228.016C183.292 228.016 181.923 229.385 181.923 231.073C181.923 232.762 183.292 234.131 184.981 234.131Z" fill="#C8C33E"/>
<path d="M230.462 234.131C232.15 234.131 233.519 232.762 233.519 231.073C233.519 229.385 232.15 228.016 230.462 228.016C228.773 228.016 227.404 229.385 227.404 231.073C227.404 232.762 228.773 234.131 230.462 234.131Z" fill="#C8C33E"/>
</svg>
